<svg width="101" height="59" viewBox="0 0 101 59" fill="none" xmlns="http://www.w3.org/2000/svg">
<path d="M87.072 8.02934C86.0319 7.43332 84.7388 6.97922 83.2771 6.75217L41.2516 0.167639C38.3281 -0.286466 35.2359 0.196021 33.1276 1.44481L2.45881 19.4104C0.3224 20.6591 -0.49281 22.4756 0.29429 24.1785L11.6791 48.7569C12.0727 49.6084 12.8317 50.3747 13.8718 50.9707C14.9119 51.5667 16.2049 52.0208 17.6667 52.2478L59.7203 58.8324C62.6438 59.2865 65.736 58.804 67.8724 57.5552L98.5412 39.5613C100.678 38.3125 101.493 36.4961 100.706 34.7932L89.2647 10.2431C88.8711 9.39165 88.1121 8.62535 87.072 8.02934Z" fill="url(#paint0_radial)"/>
<g opacity="0.4" filter="url(#filter0_f)">
<path d="M61.102 33.8419L66.006 30.8428L72.4426 34.5208L60.489 39.1184L61.102 33.8419Z" fill="black"/>
</g>
<path d="M56.2226 30.1716C55.634 29.8255 55.0658 29.6423 54.5584 29.6219C54.5584 29.5812 54.5584 29.5608 54.5584 29.5201C54.5584 24.4512 50.9865 18.2627 46.5825 15.7181C43.0309 13.662 40.0476 14.5985 38.9923 17.6724C38.7284 17.4688 38.4443 17.2652 38.1602 17.1024C35.258 15.4127 32.9038 16.7767 32.9038 20.1152C32.9038 23.4537 35.258 27.5251 38.1602 29.2148C39.6214 30.0494 54.4975 38.6808 56.2226 39.6783C58.4956 41.0015 60.3424 39.9429 60.3424 37.3169C60.3424 34.6908 58.4956 31.4948 56.2226 30.1716Z" fill="url(#paint1_linear)"/>
<path d="M56.2226 30.1716C55.634 29.8255 55.0658 29.6423 54.5584 29.6219C54.5584 29.5812 54.5584 29.5608 54.5584 29.5201C54.5584 24.4512 50.9865 18.2627 46.5825 15.7181C43.0309 13.662 40.0476 14.5985 38.9923 17.6724C38.7284 17.4688 38.4443 17.2652 38.1602 17.1024C35.258 15.4127 32.9038 16.7767 32.9038 20.1152C32.9038 23.4537 35.258 27.5251 38.1602 29.2148C39.6214 30.0494 54.4975 38.6808 56.2226 39.6783C58.4956 41.0015 60.3424 39.9429 60.3424 37.3169C60.3424 34.6908 58.4956 31.4948 56.2226 30.1716Z" fill="url(#paint2_linear)"/>
<path d="M56.2226 30.1716C55.634 29.8255 55.0658 29.6423 54.5584 29.6219C54.5584 29.5812 54.5584 29.5608 54.5584 29.5201C54.5584 24.4512 50.9865 18.2627 46.5825 15.7181C43.0309 13.662 40.0476 14.5985 38.9923 17.6724C38.7284 17.4688 38.4443 17.2652 38.1602 17.1024C35.258 15.4127 32.9038 16.7767 32.9038 20.1152C32.9038 23.4537 35.258 27.5251 38.1602 29.2148C39.6214 30.0494 54.4975 38.6808 56.2226 39.6783C58.4956 41.0015 60.3424 39.9429 60.3424 37.3169C60.3424 34.6908 58.4956 31.4948 56.2226 30.1716Z" fill="url(#paint3_linear)"/>
<path d="M68.3999 32.6141C68.3999 29.988 66.5531 26.8123 64.28 25.4891C63.6915 25.1431 63.1232 24.9599 62.6159 24.9395C62.6159 24.8988 62.6159 24.8784 62.6159 24.8377C62.6159 19.7688 59.044 13.5803 54.64 11.0357C52.1437 9.59033 49.9925 9.7939 48.4906 10.8118L45.9538 12.2775C44.5128 11.5242 43.2343 11.5242 42.321 12.1553L34.6901 16.5931C35.6237 16.186 36.8414 16.3285 38.1606 17.1021C38.4447 17.2649 38.7288 17.4685 38.9926 17.6721C40.0277 14.5982 43.0313 13.6821 46.5829 15.7178C50.9869 18.2624 54.5588 24.4509 54.5588 29.5198C54.5588 29.5605 54.5588 29.5809 54.5588 29.6216C55.0662 29.6623 55.6344 29.8252 56.223 30.1712C58.496 31.4944 60.3428 34.6905 60.3428 37.2962C60.3428 38.3955 60.0181 39.2301 59.4499 39.7187L67.0401 35.3419C67.8722 34.9551 68.3999 34.0187 68.3999 32.6141Z" fill="url(#paint4_linear)"/>
<g opacity="0.4" filter="url(#filter1_f)">
<path d="M34.4374 24.4062L36.8894 25.0193V27.4713L39.9544 29.3103L34.1309 29.9233L34.4374 24.4062Z" fill="black"/>
</g>
<path d="M36.0226 27.6445L32.0107 29.9591V34.5757L36.0226 32.2736V27.6445Z" fill="url(#paint5_linear)"/>
<path d="M32.0117 29.9591L27.9998 27.6445V32.2736L32.0117 34.5727V29.9591Z" fill="url(#paint6_linear)"/>
<path d="M36.0236 27.6449L31.9861 25.3252L27.9999 27.6449L32.0118 29.9594L36.0236 27.6449Z" fill="url(#paint7_linear)"/>
<path d="M36.0227 22.7402L32.0108 25.0548V29.6714L36.0227 27.3693V22.7402Z" fill="url(#paint8_linear)"/>
<path d="M32.0118 25.0548L27.9999 22.7402V27.3693L32.0118 29.6684V25.0548Z" fill="url(#paint9_linear)"/>
<path d="M36.0237 22.7415L31.9861 20.4219L28 22.7416L32.0119 25.0561L36.0237 22.7415Z" fill="url(#paint10_linear)"/>
<g opacity="0.4" filter="url(#filter2_f)">
<path d="M38.0604 34.0146L40.0723 32.6816L42.713 34.2142L37.1959 36.6662L38.0604 34.0146Z" fill="black"/>
</g>
<path d="M40.3163 30.0977L36.3044 32.4122V37.0289L40.3163 34.7267V30.0977Z" fill="url(#paint11_linear)"/>
<path d="M36.3037 32.4122L32.2918 30.0977V34.7267L36.3037 37.0258V32.4122Z" fill="url(#paint12_linear)"/>
<path d="M40.3151 30.097L36.2776 27.7773L32.2914 30.097L36.3033 32.4116L40.3151 30.097Z" fill="url(#paint13_linear)"/>
<defs>
<filter id="filter0_f" x="57.4422" y="27.796" width="18.0472" height="14.3691" filterUnits="userSpaceOnUse" color-interpolation-filters="sRGB">
<feFlood flood-opacity="0" result="BackgroundImageFix"/>
<feBlend mode="normal" in="SourceGraphic" in2="BackgroundImageFix" result="shape"/>
<feGaussianBlur stdDeviation="1.52338" result="effect1_foregroundBlur"/>
</filter>
<filter id="filter1_f" x="31.0841" y="21.3595" width="11.9171" height="11.6106" filterUnits="userSpaceOnUse" color-interpolation-filters="sRGB">
<feFlood flood-opacity="0" result="BackgroundImageFix"/>
<feBlend mode="normal" in="SourceGraphic" in2="BackgroundImageFix" result="shape"/>
<feGaussianBlur stdDeviation="1.52338" result="effect1_foregroundBlur"/>
</filter>
<filter id="filter2_f" x="34.1492" y="29.6349" width="11.6106" height="10.0781" filterUnits="userSpaceOnUse" color-interpolation-filters="sRGB">
<feFlood flood-opacity="0" result="BackgroundImageFix"/>
<feBlend mode="normal" in="SourceGraphic" in2="BackgroundImageFix" result="shape"/>
<feGaussianBlur stdDeviation="1.52338" result="effect1_foregroundBlur"/>
</filter>
<radialGradient id="paint0_radial" cx="0" cy="0" r="1" gradientUnits="userSpaceOnUse" gradientTransform="translate(80 13.5) rotate(141.552) scale(60.2356 61.9837)">
<stop stop-color="#BCE9FF"/>
<stop offset="1" stop-color="#86C2FF"/>
</radialGradient>
<linearGradient id="paint1_linear" x1="37.6921" y1="28.5336" x2="53.8046" y2="25.9204" gradientUnits="userSpaceOnUse">
<stop stop-color="#0788FC"/>
<stop offset="1" stop-color="#84B8FF"/>
</linearGradient>
<linearGradient id="paint2_linear" x1="49.455" y1="19.8083" x2="35.1924" y2="30.9801" gradientUnits="userSpaceOnUse">
<stop stop-color="#BFD4ED"/>
<stop offset="0.735213" stop-color="#EDF5FF"/>
</linearGradient>
<linearGradient id="paint3_linear" x1="58.2318" y1="22.688" x2="44.2238" y2="41.0342" gradientUnits="userSpaceOnUse">
<stop stop-color="#EDF5FF"/>
<stop offset="1" stop-color="#BFD4ED"/>
</linearGradient>
<linearGradient id="paint4_linear" x1="62.0253" y1="29.9554" x2="42.0734" y2="43.2374" gradientUnits="userSpaceOnUse">
<stop offset="0.0816258" stop-color="#BFD4ED"/>
<stop offset="1" stop-color="#EDF5FF"/>
</linearGradient>
<linearGradient id="paint5_linear" x1="35.714" y1="29.8263" x2="32.0097" y2="32.4491" gradientUnits="userSpaceOnUse">
<stop stop-color="#B7BFC8"/>
<stop offset="1" stop-color="#BFD4ED"/>
</linearGradient>
<linearGradient id="paint6_linear" x1="31.7031" y1="29.8254" x2="27.9998" y2="32.4485" gradientUnits="userSpaceOnUse">
<stop stop-color="#EDF5FF"/>
<stop offset="1" stop-color="#BFD4ED"/>
</linearGradient>
<linearGradient id="paint7_linear" x1="34.5063" y1="28.437" x2="31.1344" y2="31.8633" gradientUnits="userSpaceOnUse">
<stop offset="0.0816258" stop-color="#BFD4ED"/>
<stop offset="1" stop-color="#EDF5FF"/>
</linearGradient>
<linearGradient id="paint8_linear" x1="35.7141" y1="24.922" x2="32.0098" y2="27.5448" gradientUnits="userSpaceOnUse">
<stop stop-color="#B7BFC8"/>
<stop offset="1" stop-color="#BFD4ED"/>
</linearGradient>
<linearGradient id="paint9_linear" x1="31.7032" y1="24.9211" x2="27.9999" y2="27.5442" gradientUnits="userSpaceOnUse">
<stop stop-color="#EDF5FF"/>
<stop offset="1" stop-color="#BFD4ED"/>
</linearGradient>
<linearGradient id="paint10_linear" x1="34.5064" y1="23.5336" x2="31.1345" y2="26.96" gradientUnits="userSpaceOnUse">
<stop offset="0.0816258" stop-color="#BFD4ED"/>
<stop offset="1" stop-color="#EDF5FF"/>
</linearGradient>
<linearGradient id="paint11_linear" x1="40.0077" y1="32.2794" x2="36.3033" y2="34.9022" gradientUnits="userSpaceOnUse">
<stop stop-color="#B7BFC8"/>
<stop offset="1" stop-color="#BFD4ED"/>
</linearGradient>
<linearGradient id="paint12_linear" x1="35.9951" y1="32.2785" x2="32.2918" y2="34.9016" gradientUnits="userSpaceOnUse">
<stop stop-color="#EDF5FF"/>
<stop offset="1" stop-color="#BFD4ED"/>
</linearGradient>
<linearGradient id="paint13_linear" x1="38.7978" y1="30.8891" x2="35.4259" y2="34.3155" gradientUnits="userSpaceOnUse">
<stop offset="0.0816258" stop-color="#BFD4ED"/>
<stop offset="1" stop-color="#EDF5FF"/>
</linearGradient>
</defs>
</svg>
