<svg width="217" height="134" viewBox="0 0 217 134" fill="none" xmlns="http://www.w3.org/2000/svg">
<g clip-path="url(#clip0)">
<path d="M126.788 45.2199C126.538 45.3646 126.285 45.2188 126.285 45.2188L126.033 45.0731C125.78 44.9273 126.031 44.7827 126.029 44.4923C126.029 44.4923 126.027 44.2019 126.278 44.0573C126.528 43.9126 126.528 43.9126 126.781 44.0584L127.035 44.4945C127.037 44.7849 127.039 45.0753 126.788 45.2199ZM124.749 41.1501C126.002 40.4269 126.249 39.7015 125.491 39.2643C125.491 39.2643 125.241 39.4089 124.988 39.2631L124.487 39.5524L125.244 39.9897C124.743 40.2789 124.745 40.5693 124.244 40.8586L124.749 41.1501ZM134.838 45.5282C135.343 45.8197 135.095 46.2547 134.596 46.8344L135.101 47.1259C135.099 46.8355 135.349 46.6909 135.6 46.5462C135.85 46.4016 136.101 46.257 136.099 45.9666C136.097 45.6762 136.095 45.3858 135.842 45.2401C135.842 45.2401 135.339 45.2389 135.087 45.0932C134.836 45.2378 135.089 45.3836 134.838 45.5282ZM123.256 43.4698C123.003 43.324 123.003 43.324 123.254 43.1794C123.504 43.0348 123.755 42.8901 124.258 42.8913C124.763 43.1828 125.266 43.1839 125.266 43.1839C125.518 43.3296 125.268 43.4743 125.268 43.4743C125.017 43.6189 124.514 43.6178 123.508 43.6155L123.256 43.4698ZM120.729 41.7219C120.22 40.8496 120.719 40.27 121.972 39.5468C122.724 39.1129 123.225 38.8236 124.231 38.8259C124.984 38.6824 125.74 38.8292 126.245 39.1207C126.75 39.4122 126.752 39.7026 126.755 40.2834C126.256 40.863 125.757 41.4427 125.006 41.8766L124.755 42.0212L124.504 42.1659L124.757 42.3116L125.008 42.167C125.26 42.3127 125.761 42.0235 126.763 41.4449C127.515 41.011 128.266 40.5771 128.513 39.8517C128.76 39.1263 128.756 38.5456 127.746 37.9626C126.989 37.5253 125.73 37.3773 124.726 37.6655C123.219 37.9525 122.366 38.3281 121.114 39.0513C120.112 39.6298 119.463 40.4124 119.471 41.5739C119.974 41.575 120.226 41.7208 120.729 41.7219ZM116.963 80.3341C117.215 80.4799 117.315 80.422 117.541 80.2918C118.092 79.9736 118.491 79.4518 118.46 78.5952C118.454 77.724 117.668 76.7204 116.353 75.7302C116.126 75.57 115.874 75.4243 115.874 75.4243C115.671 75.2496 115.671 75.2496 115.419 75.1038C115.191 74.9436 114.736 74.6232 114.534 74.4485C117.621 73.5407 119.928 72.5004 121.732 71.4591C124.238 70.0127 125.486 68.7088 125.98 67.258C126.473 65.8072 126.215 64.7903 125.203 63.9169C124.7 63.9158 124.7 63.9158 124.449 64.0604C125.211 65.0784 125.471 66.3857 124.725 67.6908C123.729 69.1405 122.478 70.154 120.724 71.1664C119.321 71.9764 116.989 73.0311 113.324 73.9812C111.913 73.6296 109.976 73.5818 107.766 73.9834C107.54 74.1135 107.415 74.1859 107.667 74.3316C107.667 74.3316 108.145 74.3472 108.824 74.2471C109.755 74.2927 110.433 74.1926 111.364 74.2382C112.547 74.4296 113.278 74.5909 114.035 75.0282C115.297 75.7569 116.384 76.5869 116.791 77.2267C117.475 77.9977 117.629 78.4917 117.481 78.8688C117.358 79.2315 117.259 79.5798 117.186 79.9135C116.86 80.1016 116.963 80.3341 116.963 80.3341V80.3341ZM130.063 45.9532C130.061 45.6628 130.562 45.3735 131.063 45.0842C132.065 44.5057 132.566 44.2164 133.823 44.074C134.829 44.0763 135.584 44.2231 136.089 44.5147C136.847 44.9519 136.85 45.5327 136.854 46.1134C136.355 46.6931 136.107 47.1281 135.355 47.562C134.102 48.2852 132.846 48.4276 131.585 47.9892C131.585 47.9892 131.587 48.2796 131.84 48.4253C132.345 48.7168 132.347 49.0072 132.601 49.4434C134.357 48.7213 135.611 48.2885 136.864 47.5654C138.367 46.6976 139.117 45.9733 139.363 45.2479C139.358 44.3767 138.851 43.7948 137.841 43.2118C137.083 42.7746 136.076 42.482 134.817 42.334C133.561 42.4764 132.807 42.6199 132.055 43.0538C130.803 43.777 130.053 44.5012 129.556 45.3713C129.808 45.517 129.81 45.8074 130.063 45.9532ZM129.084 50.0163C123.547 49.4232 120.02 48.5443 118 47.3782C116.233 46.358 115.217 44.9038 114.955 43.3062C114.707 43.7412 114.458 44.1762 114.46 44.4666L114.472 46.2089C114.479 47.3704 115.241 48.3884 116.503 49.1172C118.27 50.1375 121.292 50.7249 125.571 51.17L129.346 51.614C130.352 51.6162 131.358 51.6185 132.11 51.1846C132.36 51.0399 132.611 50.8953 132.358 50.7495C132.607 50.3145 132.096 49.1519 130.323 47.2604C129.053 45.3702 127.787 44.0606 126.777 43.4776C126.019 43.0404 124.256 42.6009 121.486 42.1592C118.97 41.8632 116.957 41.8587 115.955 42.4372C115.955 42.4372 115.957 42.7276 115.709 43.1626C115.971 44.7603 116.734 46.0687 118.249 46.9432C120.269 48.1092 123.796 48.9882 129.583 49.4367L129.082 49.7259C129.334 49.8717 129.084 50.0163 129.084 50.0163ZM84.2828 82.5845C83.4087 84.2552 84.2289 85.8221 86.2487 86.9881C86.7537 87.2796 87.3338 87.5278 87.989 87.7325C88.5942 87.9661 89.2745 88.1564 89.7274 88.1864C90.1552 88.2309 90.5831 88.2754 91.036 88.3055C91.7163 88.4957 91.8415 88.4234 92.2193 88.4969L100.194 88.8485C102.003 88.9702 103.712 89.1496 105.581 89.5284C107.192 89.7643 108.603 90.1159 109.333 90.2772C110.291 90.5987 111.096 90.7167 112.002 90.7768C112.631 90.7056 113.359 90.5765 113.96 90.2294C114.687 89.81 114.733 89.2003 114.629 88.6773C114.525 88.1544 114.296 87.7038 113.966 87.3111C113.636 86.9183 113.532 86.3954 113.451 85.5677C113.598 84.9001 113.995 84.0879 114.92 83.2624L116.12 82.2778C116.544 81.7415 117.046 81.4523 117.069 81.1474C117.144 81.104 117.169 81.0896 116.916 80.9438C116.664 80.798 115.933 80.6367 115.255 80.7368C114.324 80.6912 113.343 80.6745 112.337 80.6723C111.584 80.8158 110.375 80.6389 109.445 80.5933C108.261 80.4019 107.278 80.0948 106.773 79.8033C104.754 78.6373 104.295 77.7361 104.615 76.6769C104.912 75.9226 105.586 75.2417 106.386 74.4885C106.307 73.9511 106.28 73.6752 105.775 73.3837C104.513 72.6549 102.705 73.1155 100.074 74.6341L99.2474 75.1114L96.3412 76.7892L94.1115 78.0764L93.0342 78.6983L92.2826 79.1322C92.0571 79.2624 91.3036 79.4059 90.5269 79.8543C89.4978 80.1569 88.6159 80.666 87.6188 81.2417L84.3329 82.5556L84.2903 82.5802L84.2828 82.5845ZM49.0074 60.6811C51.0146 62.2333 52.987 64.2137 54.9295 66.6195C56.8821 69.0195 58.1742 70.4307 58.8558 70.8242C60.6231 71.8445 62.8641 72.2415 65.5767 72.0747C66.3152 71.9399 66.8864 71.6101 67.5428 71.2312C69.9103 69.8644 71.4651 67.3052 72.2197 63.5465L72.7828 61.2392C72.9053 60.7604 73.2027 60.0932 73.6243 59.2084C74.0712 58.3383 74.3431 57.6275 74.4905 57.1051C74.7385 56.583 74.7846 55.9442 74.6791 55.218C74.5989 54.5064 74.2173 53.8522 73.5846 53.2555C72.3238 52.7591 71.2409 52.5389 70.4114 52.6097C69.5819 52.6804 68.8538 52.8675 68.2522 53.1566C67.6503 53.4166 67.1481 53.5316 66.7202 53.4871C66.3175 53.4281 65.763 53.2527 65.057 52.9898C64.9308 52.9169 64.7036 52.7857 64.3503 52.6107L63.6686 52.2172C62.3305 51.4447 61.2713 51.0068 60.5411 50.8745C59.1834 50.9295 58.0284 51.2173 57.1515 51.7236C56.7507 51.955 56.1752 52.4038 55.4252 53.07C54.7002 53.7217 54.0496 54.2139 53.5234 54.5177C52.4962 55.1107 51.1661 55.5288 49.5077 55.7574C47.7993 56.0149 46.6693 56.2883 46.0981 56.618C45.3785 57.325 46.3609 58.6818 49.0149 60.6768L49.0074 60.6811ZM80.1957 52.3831C81.9244 51.3852 84.2829 50.5483 87.4719 49.7859C90.6356 49.0089 93.0477 48.6658 94.9334 48.5974C95.1335 48.4236 95.0072 48.3507 94.8053 48.2341L94.8033 47.9437C93.3196 47.955 90.6822 48.4573 87.1165 49.2914C83.8013 49.981 81.1664 50.8608 79.6382 51.7431C78.5107 52.3939 77.8114 53.1183 77.4645 53.9016C77.1932 54.6995 77.3287 56.1662 77.9212 58.2728L78.8687 60.8157C79.2664 63.8801 79.0776 65.7381 78.0755 66.3167C77.5493 66.6204 76.7707 66.7784 75.4371 66.6738C74.3309 66.7294 73.3486 66.5094 72.7679 66.1742C72.7174 66.1451 72.642 66.1594 72.5168 66.2317C72.4917 66.2462 72.2431 66.6812 71.7962 67.5514C71.4286 68.9879 72.9993 70.7047 76.0289 72.4537C81.5833 75.6602 88.1301 76.8363 95.9218 76.1276C97.1745 75.4045 97.9512 74.9561 98.0244 74.6223L98.9514 74.0872C100.58 73.1471 102.06 72.5841 103.367 72.4128C104.673 72.2415 105.554 72.316 106.311 72.7533C106.816 73.0448 107.146 73.4375 107.275 73.946C109.457 72.9781 111.135 72.009 112.638 71.1412C114.918 69.8251 116.797 68.7403 118.046 67.4364C119.297 66.4228 120.045 65.4081 120.542 64.5381C120.788 63.8127 121.035 63.0873 121.282 62.3619C121.528 61.6365 122.027 61.0569 122.274 60.3314C123.024 59.6072 123.523 59.0275 124.776 58.3043C125.271 57.1439 126.019 56.1293 126.514 54.9688C127.262 53.9542 128.009 52.9395 128.506 52.0695L124.481 51.7701C120.202 51.3251 117.431 50.5929 115.663 49.5727C114.149 48.6982 113.137 47.8248 113.382 46.809L113.119 45.2113C112.368 45.6452 111.113 46.078 109.606 46.365L105.009 47.1824C102.548 47.7867 101.168 48.1466 100.34 48.5368C99.7382 48.7678 99.1614 49.0133 99.1109 48.9842L93.4593 50.0605C87.6563 51.0494 83.1388 52.4623 80.2576 54.1255C79.6814 54.4582 79.1306 54.8345 78.6303 55.2399C78.2709 54.1357 78.7927 53.1931 80.1957 52.3831V52.3831ZM74.5721 76.5012C71.29 74.6065 68.3243 73.4035 65.6827 72.888L65.7578 72.8446C62.9923 72.9837 60.8018 72.6158 58.8325 71.479C57.5954 70.7648 56.1274 69.3677 54.4537 67.3023C52.7047 65.2512 51.0482 63.4965 49.4592 62.0527C49.3148 61.9028 48.9456 61.5913 48.3286 61.1021C47.7345 60.6289 47.1933 60.1834 46.7278 59.7817C46.3104 59.4105 45.8748 58.9624 45.4489 58.4503C45.0156 57.9717 44.7688 57.5312 44.7032 57.1318C44.6705 56.7484 44.8546 56.4439 45.2529 56.214C45.6538 55.9826 46.168 55.7848 46.7957 55.6207C47.2328 55.5549 47.6851 55.4978 48.1124 55.4552C48.5647 55.3981 48.9667 55.3409 49.3183 55.2546C49.6952 55.2119 50.0217 55.14 50.3732 55.0537C50.6997 54.9818 51.0262 54.9099 51.3522 54.78C51.6533 54.6645 51.9543 54.549 52.2048 54.4044C52.4554 54.2598 53.106 53.7676 54.2318 52.8844C55.3326 52.0157 56.0584 51.4801 56.4092 51.2776C57.5115 50.6412 58.6408 50.2808 59.8226 50.2398C61.0044 50.1989 61.8603 50.317 62.4157 50.6376L65.3191 52.3138C65.5463 52.4449 66.0251 52.5767 66.8559 52.7092C67.4335 52.5798 67.9107 52.4792 68.3123 52.364C68.7392 52.2633 69.0151 52.1623 69.1658 52.1336C69.3667 52.0759 69.5675 52.0183 69.7432 51.9751C70.0196 51.9322 70.3463 51.8894 70.7234 51.8757C70.772 51.6145 70.9967 51.3681 71.3975 51.1367C71.6731 50.9776 71.9236 50.833 72.1245 50.7754C73.0264 50.2547 74.7333 49.7648 77.3208 49.3205L79.7828 48.9194C81.8678 48.5611 83.4254 48.3032 84.8315 47.9579C86.2628 47.6271 88.2205 47.0217 90.7297 46.1561C92.8874 45.3769 95.6005 44.9183 98.8691 44.7804L103.017 44.5718C105.833 44.4619 107.945 44.2343 109.426 43.9327C110.908 43.6311 112.413 43.0537 113.415 42.4751C113.917 42.1859 115.294 41.2452 117.521 39.6385C119.774 38.0465 122.153 36.5273 124.408 35.2256C126.162 34.2131 127.566 33.5774 129.147 33.0437C130.728 32.51 132.561 32.1221 134.421 32.0391C136.181 31.8978 138.193 31.9023 140.209 32.4876C142.225 33.0728 144.243 33.9484 146.262 35.1144C147.02 35.5517 147.777 35.9889 148.284 36.5708C149.042 37.0081 149.801 37.7357 150.562 38.7537C151.071 39.626 151.58 40.4983 151.586 41.3694C151.844 42.3863 151.349 43.5468 150.853 44.7072C149.855 45.8665 148.857 47.0258 147.105 48.3286C146.105 49.1975 144.852 49.9207 143.351 51.0789C141.848 51.9467 141.098 52.671 140.346 53.1049C139.847 53.6845 138.845 54.263 137.845 55.132C137.095 55.8562 136.346 56.5805 136.099 57.3059C135.602 58.176 135.105 59.046 134.86 60.0618C134.365 61.2222 134.122 62.5284 133.628 63.9792C133.395 66.7373 132.407 69.3485 130.661 71.5225C129.418 73.6976 126.918 76.015 123.436 78.0254C121.707 79.0234 119.776 79.8467 117.643 80.4953C118.148 80.7868 118.2 81.0483 118.101 81.3965C118.003 81.7448 117.504 82.3244 116.579 83.1499L114.978 84.366C114.679 84.8299 114.405 85.2794 114.712 85.977C114.766 86.5288 114.895 87.0373 115.351 87.6481C115.606 88.0842 116.013 88.724 116.067 89.2758C116.07 89.8566 115.797 90.3061 115.246 90.6243C114.394 91.116 113.515 91.3319 112.559 91.3007C111.553 91.2985 110.697 91.2094 109.714 90.9024C108.959 90.7555 107.448 90.4617 105.227 89.9951C103.223 89.6945 101.061 89.4849 98.7339 89.3709L94.0771 89.1442C92.0902 89.1253 90.3788 88.9472 89.1955 88.7558C87.9871 88.5789 86.7517 88.1261 85.7419 87.5431L84.175 86.4071C82.6814 84.9374 82.4211 83.6301 83.192 82.3106C79.6385 79.698 76.5969 77.6643 74.5771 76.4983" fill="url(#paint0_linear)"/>
</g>
<defs>
<linearGradient id="paint0_linear" x1="203.75" y1="40.0605" x2="140.702" y2="-29.5673" gradientUnits="userSpaceOnUse">
<stop stop-color="#F1F1F1"/>
<stop offset="1" stop-color="white" stop-opacity="0.4"/>
</linearGradient>
<clipPath id="clip0">
<rect width="77.5448" height="90.257" fill="white" transform="matrix(0.866044 0.499967 -0.866044 0.499967 114.167 15)"/>
</clipPath>
</defs>
</svg>
