<svg width="101" height="59" viewBox="0 0 101 59" fill="none" xmlns="http://www.w3.org/2000/svg">
<path d="M87.072 8.02934C86.0319 7.43332 84.7388 6.97922 83.2771 6.75217L41.2516 0.167639C38.3281 -0.286466 35.2359 0.196021 33.1276 1.44481L2.45881 19.4104C0.3224 20.6591 -0.49281 22.4756 0.29429 24.1785L11.6791 48.7569C12.0727 49.6084 12.8317 50.3747 13.8718 50.9707C14.9119 51.5667 16.2049 52.0208 17.6667 52.2478L59.7203 58.8324C62.6438 59.2865 65.736 58.804 67.8724 57.5552L98.5412 39.5613C100.678 38.3125 101.493 36.4961 100.706 34.7932L89.2647 10.2431C88.8711 9.39165 88.1121 8.62535 87.072 8.02934Z" fill="url(#paint0_radial)"/>
<g filter="url(#filter0_d)">
<path d="M70.7273 31.168L56.8303 39.2064L56.8187 42.2225L70.713 34.2496L70.7273 31.168Z" fill="url(#paint1_linear)"/>
<path d="M56.8297 39.175L27 22.0029V25.0845L56.8297 42.2031V39.175Z" fill="url(#paint2_linear)"/>
<path d="M70.7266 31.1987L40.8056 14L27.0003 22.0338L56.8296 39.2372L70.7266 31.1987Z" fill="url(#paint3_linear)"/>
</g>
<g filter="url(#filter1_d)">
<path d="M37.7484 16.2068C36.2797 15.3503 33.9118 15.3503 32.4506 16.2068C32.0404 16.4472 31.5383 16.111 31.3594 16.4124C31.3594 16.6734 31.3623 17.4993 31.3594 17.7388C31.3527 18.3088 31.7218 18.8805 32.4656 19.3143C33.9343 20.1707 36.3022 20.1707 37.7634 19.3143C38.494 18.886 38.8556 18.3233 38.8518 17.7605C38.8499 17.4718 38.8518 16.8256 38.8518 16.4124C38.6679 16.1556 38.1042 16.4153 37.7484 16.2068Z" fill="#CCDEF2"/>
<path d="M37.7484 16.2068C36.2797 15.3503 33.9118 15.3503 32.4506 16.2068C32.0404 16.4472 31.5383 16.111 31.3594 16.4124C31.3594 16.6734 31.3623 17.4993 31.3594 17.7388C31.3527 18.3088 31.7218 18.8805 32.4656 19.3143C33.9343 20.1707 36.3022 20.1707 37.7634 19.3143C38.494 18.886 38.8556 18.3233 38.8518 17.7605C38.8499 17.4718 38.8518 16.8256 38.8518 16.4124C38.6679 16.1556 38.1042 16.4153 37.7484 16.2068Z" fill="url(#paint4_linear)"/>
<path d="M37.7484 14.9158C36.2797 14.0593 33.9118 14.0593 32.4506 14.9158C30.9894 15.7722 30.9969 17.1668 32.4656 18.0233C33.9343 18.8797 36.3022 18.8797 37.7634 18.0233C39.2246 17.1668 39.2096 15.7722 37.7484 14.9158Z" fill="#CCDEF2"/>
<path d="M37.7484 14.9158C36.2797 14.0593 33.9118 14.0593 32.4506 14.9158C30.9894 15.7722 30.9969 17.1668 32.4656 18.0233C33.9343 18.8797 36.3022 18.8797 37.7634 18.0233C39.2246 17.1668 39.2096 15.7722 37.7484 14.9158Z" fill="url(#paint5_linear)"/>
</g>
<g filter="url(#filter2_d)">
<path d="M54.2537 16.4854L50.0964 18.8838V20.5267L54.2537 18.1411V16.4854Z" fill="url(#paint6_linear)"/>
<path d="M50.0955 18.8838L45.9383 16.4854V18.1411L50.0955 20.5236V18.8838Z" fill="url(#paint7_linear)"/>
<path d="M54.2532 16.5395L50.0693 14.1357L45.9387 16.5395L50.096 18.9379L54.2532 16.5395Z" fill="url(#paint8_linear)"/>
</g>
<g filter="url(#filter3_d)">
<path d="M47.4395 23.5713L43.2823 25.9697V27.6126L47.4395 25.2271V23.5713Z" fill="url(#paint9_linear)"/>
<path d="M43.2828 25.9697L39.1256 23.5713V25.2271L43.2828 27.6095V25.9697Z" fill="url(#paint10_linear)"/>
<path d="M47.4397 23.6244L43.2558 21.2207L39.1252 23.6244L43.2825 26.0229L47.4397 23.6244Z" fill="url(#paint11_linear)"/>
</g>
<g filter="url(#filter4_d)">
<path d="M65.9662 27.2842L54.8636 33.8036V34.9015L65.9662 28.395V27.2842Z" fill="url(#paint12_linear)"/>
<path d="M54.8642 33.8037L50.7069 31.4053V32.5161L54.8642 34.8985V33.8037Z" fill="url(#paint13_linear)"/>
<path d="M65.966 27.2837L61.8105 24.8994L50.7067 31.4587L54.864 33.8571L65.966 27.2837Z" fill="url(#paint14_linear)"/>
</g>
<g filter="url(#filter5_d)">
<path d="M56.2958 28.5732C55.5746 28.1527 54.4117 28.1527 53.6942 28.5732C53.4927 28.6913 53.2462 28.5262 53.1583 28.6742C53.1583 28.8024 53.1597 29.208 53.1583 29.3256C53.155 29.6055 53.3363 29.8862 53.7015 30.0992C54.4228 30.5198 55.5856 30.5198 56.3032 30.0992C56.6619 29.889 56.8395 29.6126 56.8376 29.3362C56.8367 29.1945 56.8376 28.8771 56.8376 28.6742C56.7473 28.5481 56.4705 28.6756 56.2958 28.5732Z" fill="#CCDEF2"/>
<path d="M56.2958 28.5732C55.5746 28.1527 54.4117 28.1527 53.6942 28.5732C53.4927 28.6913 53.2462 28.5262 53.1583 28.6742C53.1583 28.8024 53.1597 29.208 53.1583 29.3256C53.155 29.6055 53.3363 29.8862 53.7015 30.0992C54.4228 30.5198 55.5856 30.5198 56.3032 30.0992C56.6619 29.889 56.8395 29.6126 56.8376 29.3362C56.8367 29.1945 56.8376 28.8771 56.8376 28.6742C56.7473 28.5481 56.4705 28.6756 56.2958 28.5732Z" fill="url(#paint15_linear)"/>
<path d="M56.2962 27.9404C55.575 27.5199 54.4122 27.5199 53.6946 27.9404C52.977 28.361 52.9807 29.0459 53.702 29.4664C54.4232 29.887 55.586 29.887 56.3036 29.4664C57.0211 29.0459 57.0138 28.361 56.2962 27.9404Z" fill="#CCDEF2"/>
<path d="M56.2962 27.9404C55.575 27.5199 54.4122 27.5199 53.6946 27.9404C52.977 28.361 52.9807 29.0459 53.702 29.4664C54.4232 29.887 55.586 29.887 56.3036 29.4664C57.0211 29.0459 57.0138 28.361 56.2962 27.9404Z" fill="url(#paint16_linear)"/>
</g>
<path d="M63.5108 22.6279L61.2646 23.9238V24.8115L63.5108 23.5226V22.6279Z" fill="url(#paint17_linear)"/>
<path d="M61.2652 23.9238L59.0191 22.6279V23.5226L61.2652 24.8098V23.9238Z" fill="url(#paint18_linear)"/>
<path d="M63.5109 22.6571L61.2504 21.3584L59.0186 22.6571L61.2648 23.953L63.5109 22.6571Z" fill="url(#paint19_linear)"/>
<defs>
<filter id="filter0_d" x="26" y="12.5" width="47.7273" height="32.2225" filterUnits="userSpaceOnUse" color-interpolation-filters="sRGB">
<feFlood flood-opacity="0" result="BackgroundImageFix"/>
<feColorMatrix in="SourceAlpha" type="matrix" values="0 0 0 0 0 0 0 0 0 0 0 0 0 0 0 0 0 0 127 0"/>
<feOffset dx="1" dy="0.5"/>
<feGaussianBlur stdDeviation="1"/>
<feColorMatrix type="matrix" values="0 0 0 0 0 0 0 0 0 0 0 0 0 0 0 0 0 0 0.15 0"/>
<feBlend mode="normal" in2="BackgroundImageFix" result="effect1_dropShadow"/>
<feBlend mode="normal" in="SourceGraphic" in2="effect1_dropShadow" result="shape"/>
</filter>
<filter id="filter1_d" x="25.4093" y="12.5734" width="19.3925" height="17.5832" filterUnits="userSpaceOnUse" color-interpolation-filters="sRGB">
<feFlood flood-opacity="0" result="BackgroundImageFix"/>
<feColorMatrix in="SourceAlpha" type="matrix" values="0 0 0 0 0 0 0 0 0 0 0 0 0 0 0 0 0 0 127 0"/>
<feOffset dy="4.25"/>
<feGaussianBlur stdDeviation="2.975"/>
<feColorMatrix type="matrix" values="0 0 0 0 0 0 0 0 0 0 0 0 0 0 0 0 0 0 0.08 0"/>
<feBlend mode="normal" in2="BackgroundImageFix" result="effect1_dropShadow"/>
<feBlend mode="normal" in="SourceGraphic" in2="effect1_dropShadow" result="shape"/>
</filter>
<filter id="filter2_d" x="39.9883" y="12.4357" width="20.2154" height="18.2909" filterUnits="userSpaceOnUse" color-interpolation-filters="sRGB">
<feFlood flood-opacity="0" result="BackgroundImageFix"/>
<feColorMatrix in="SourceAlpha" type="matrix" values="0 0 0 0 0 0 0 0 0 0 0 0 0 0 0 0 0 0 127 0"/>
<feOffset dy="4.25"/>
<feGaussianBlur stdDeviation="2.975"/>
<feColorMatrix type="matrix" values="0 0 0 0 0 0 0 0 0 0 0 0 0 0 0 0 0 0 0.08 0"/>
<feBlend mode="normal" in2="BackgroundImageFix" result="effect1_dropShadow"/>
<feBlend mode="normal" in="SourceGraphic" in2="effect1_dropShadow" result="shape"/>
</filter>
<filter id="filter3_d" x="33.1752" y="19.5207" width="20.2145" height="18.2919" filterUnits="userSpaceOnUse" color-interpolation-filters="sRGB">
<feFlood flood-opacity="0" result="BackgroundImageFix"/>
<feColorMatrix in="SourceAlpha" type="matrix" values="0 0 0 0 0 0 0 0 0 0 0 0 0 0 0 0 0 0 127 0"/>
<feOffset dy="4.25"/>
<feGaussianBlur stdDeviation="2.975"/>
<feColorMatrix type="matrix" values="0 0 0 0 0 0 0 0 0 0 0 0 0 0 0 0 0 0 0.08 0"/>
<feBlend mode="normal" in2="BackgroundImageFix" result="effect1_dropShadow"/>
<feBlend mode="normal" in="SourceGraphic" in2="effect1_dropShadow" result="shape"/>
</filter>
<filter id="filter4_d" x="44.7567" y="23.1994" width="27.1595" height="21.9021" filterUnits="userSpaceOnUse" color-interpolation-filters="sRGB">
<feFlood flood-opacity="0" result="BackgroundImageFix"/>
<feColorMatrix in="SourceAlpha" type="matrix" values="0 0 0 0 0 0 0 0 0 0 0 0 0 0 0 0 0 0 127 0"/>
<feOffset dy="4.25"/>
<feGaussianBlur stdDeviation="2.975"/>
<feColorMatrix type="matrix" values="0 0 0 0 0 0 0 0 0 0 0 0 0 0 0 0 0 0 0.08 0"/>
<feBlend mode="normal" in2="BackgroundImageFix" result="effect1_dropShadow"/>
<feBlend mode="normal" in="SourceGraphic" in2="effect1_dropShadow" result="shape"/>
</filter>
<filter id="filter5_d" x="49.7583" y="26.775" width="10.4798" height="9.58968" filterUnits="userSpaceOnUse" color-interpolation-filters="sRGB">
<feFlood flood-opacity="0" result="BackgroundImageFix"/>
<feColorMatrix in="SourceAlpha" type="matrix" values="0 0 0 0 0 0 0 0 0 0 0 0 0 0 0 0 0 0 127 0"/>
<feOffset dy="2.55"/>
<feGaussianBlur stdDeviation="1.7"/>
<feColorMatrix type="matrix" values="0 0 0 0 0 0 0 0 0 0 0 0 0 0 0 0 0 0 0.12 0"/>
<feBlend mode="normal" in2="BackgroundImageFix" result="effect1_dropShadow"/>
<feBlend mode="normal" in="SourceGraphic" in2="effect1_dropShadow" result="shape"/>
</filter>
<radialGradient id="paint0_radial" cx="0" cy="0" r="1" gradientUnits="userSpaceOnUse" gradientTransform="translate(80 13.5) rotate(141.552) scale(60.2356 61.9837)">
<stop stop-color="#BCE9FF"/>
<stop offset="1" stop-color="#86C2FF"/>
</radialGradient>
<linearGradient id="paint1_linear" x1="69.6443" y1="36.2717" x2="56.815" y2="45.3552" gradientUnits="userSpaceOnUse">
<stop stop-color="#B7BFC8"/>
<stop offset="1" stop-color="#BFD4ED"/>
</linearGradient>
<linearGradient id="paint2_linear" x1="39.8255" y1="27.1034" x2="27" y2="36.1882" gradientUnits="userSpaceOnUse">
<stop stop-color="#EDF5FF"/>
<stop offset="1" stop-color="#BFD4ED"/>
</linearGradient>
<linearGradient id="paint3_linear" x1="49.5341" y1="24.777" x2="37.856" y2="36.6436" gradientUnits="userSpaceOnUse">
<stop offset="0.0816258" stop-color="#E8EDF3"/>
<stop offset="1" stop-color="#EDF5FF"/>
</linearGradient>
<linearGradient id="paint4_linear" x1="38.2755" y1="16.947" x2="36.3357" y2="20.9948" gradientUnits="userSpaceOnUse">
<stop stop-color="#D7DEE7"/>
<stop offset="1" stop-color="#D6DFEA"/>
</linearGradient>
<linearGradient id="paint5_linear" x1="37.435" y1="17.2227" x2="34.2388" y2="20.4226" gradientUnits="userSpaceOnUse">
<stop offset="0.0816258" stop-color="#BFD4ED"/>
<stop offset="1" stop-color="#EDF5FF"/>
</linearGradient>
<linearGradient id="paint6_linear" x1="53.9339" y1="18.7462" x2="50.0953" y2="21.464" gradientUnits="userSpaceOnUse">
<stop stop-color="#B7BFC8"/>
<stop offset="1" stop-color="#BFD4ED"/>
</linearGradient>
<linearGradient id="paint7_linear" x1="49.7758" y1="18.7452" x2="45.9383" y2="21.4634" gradientUnits="userSpaceOnUse">
<stop stop-color="#EDF5FF"/>
<stop offset="1" stop-color="#BFD4ED"/>
</linearGradient>
<linearGradient id="paint8_linear" x1="52.6809" y1="17.3603" x2="49.1868" y2="20.9108" gradientUnits="userSpaceOnUse">
<stop offset="0.0816258" stop-color="#BFD4ED"/>
<stop offset="1" stop-color="#EDF5FF"/>
</linearGradient>
<linearGradient id="paint9_linear" x1="47.1197" y1="25.8321" x2="43.2812" y2="28.5499" gradientUnits="userSpaceOnUse">
<stop stop-color="#B7BFC8"/>
<stop offset="1" stop-color="#BFD4ED"/>
</linearGradient>
<linearGradient id="paint10_linear" x1="42.963" y1="25.8311" x2="39.1256" y2="28.5493" gradientUnits="userSpaceOnUse">
<stop stop-color="#EDF5FF"/>
<stop offset="1" stop-color="#BFD4ED"/>
</linearGradient>
<linearGradient id="paint11_linear" x1="45.8674" y1="24.4452" x2="42.3733" y2="27.9958" gradientUnits="userSpaceOnUse">
<stop offset="0.0816258" stop-color="#BFD4ED"/>
<stop offset="1" stop-color="#EDF5FF"/>
</linearGradient>
<linearGradient id="paint12_linear" x1="58.7011" y1="33.121" x2="54.8625" y2="35.8388" gradientUnits="userSpaceOnUse">
<stop stop-color="#B7BFC8"/>
<stop offset="1" stop-color="#BFD4ED"/>
</linearGradient>
<linearGradient id="paint13_linear" x1="54.5444" y1="33.6651" x2="50.7069" y2="36.3833" gradientUnits="userSpaceOnUse">
<stop stop-color="#EDF5FF"/>
<stop offset="1" stop-color="#BFD4ED"/>
</linearGradient>
<linearGradient id="paint14_linear" x1="57.4489" y1="32.2794" x2="53.9548" y2="35.8299" gradientUnits="userSpaceOnUse">
<stop offset="0.0816258" stop-color="#BFD4ED"/>
<stop offset="1" stop-color="#EDF5FF"/>
</linearGradient>
<linearGradient id="paint15_linear" x1="56.5546" y1="28.9367" x2="55.6021" y2="30.9245" gradientUnits="userSpaceOnUse">
<stop stop-color="#D7DEE7"/>
<stop offset="1" stop-color="#D6DFEA"/>
</linearGradient>
<linearGradient id="paint16_linear" x1="56.1423" y1="29.0733" x2="54.5727" y2="30.6447" gradientUnits="userSpaceOnUse">
<stop offset="0.0816258" stop-color="#BFD4ED"/>
<stop offset="1" stop-color="#EDF5FF"/>
</linearGradient>
<linearGradient id="paint17_linear" x1="63.338" y1="23.8495" x2="61.264" y2="25.3179" gradientUnits="userSpaceOnUse">
<stop stop-color="#B7BFC8"/>
<stop offset="1" stop-color="#BFD4ED"/>
</linearGradient>
<linearGradient id="paint18_linear" x1="61.0924" y1="23.8489" x2="59.0191" y2="25.3176" gradientUnits="userSpaceOnUse">
<stop stop-color="#EDF5FF"/>
<stop offset="1" stop-color="#BFD4ED"/>
</linearGradient>
<linearGradient id="paint19_linear" x1="62.6614" y1="23.1006" x2="60.7735" y2="25.019" gradientUnits="userSpaceOnUse">
<stop offset="0.0816258" stop-color="#BFD4ED"/>
<stop offset="1" stop-color="#EDF5FF"/>
</linearGradient>
</defs>
</svg>
