<svg width="93" height="98" viewBox="0 0 93 98" fill="none" xmlns="http://www.w3.org/2000/svg">
<g filter="url(#filter0_d)">
<path d="M42.3442 15.3094C44.8194 13.8803 47.869 13.8803 50.3442 15.3094L68.325 25.6906C70.8002 27.1197 72.325 29.7607 72.325 32.6188V53.3812C72.325 56.2393 70.8002 58.8803 68.325 60.3094L50.3442 70.6906C47.869 72.1197 44.8194 72.1197 42.3442 70.6906L24.3635 60.3094C21.8883 58.8803 20.3635 56.2393 20.3635 53.3812V32.6188C20.3635 29.7607 21.8883 27.1197 24.3635 25.6906L42.3442 15.3094Z" fill="url(#paint0_linear)"/>
</g>
<path d="M32.1469 50.601L33.4045 50.8218C33.5507 51.3688 33.7677 51.8945 34.0503 52.3855L33.3215 53.428C33.1936 53.613 33.1343 53.8367 33.1539 54.0606C33.1736 54.2845 33.2709 54.4945 33.4291 54.6545L34.1856 55.4088C34.3461 55.5666 34.5567 55.6637 34.7812 55.6832C35.0057 55.7028 35.2301 55.6437 35.4156 55.5161L36.4642 54.7833C36.9606 55.0726 37.493 55.2953 38.0478 55.4456L38.2692 56.6997C38.3083 56.9236 38.4253 57.1266 38.5997 57.273C38.774 57.4194 38.9946 57.4998 39.2225 57.5H40.2926C40.5205 57.4998 40.7411 57.4194 40.9154 57.273C41.0898 57.1266 41.2068 56.9236 41.2459 56.6997L41.4673 55.4456C42.0162 55.2979 42.5434 55.0794 43.0355 54.7956L44.0841 55.5284C44.2696 55.656 44.494 55.7151 44.7185 55.6955C44.943 55.6759 45.1536 55.5789 45.3141 55.4211L46.0706 54.6668C46.2288 54.5068 46.3261 54.2967 46.3458 54.0729C46.3654 53.849 46.3062 53.6253 46.1782 53.4403L45.4433 52.3947C45.7281 51.9041 45.9472 51.3783 46.0952 50.8309L47.3529 50.6102C47.5774 50.5712 47.781 50.4545 47.9278 50.2807C48.0746 50.1068 48.1552 49.8869 48.1554 49.6596V48.5834C48.1552 48.3561 48.0746 48.1362 47.9278 47.9624C47.781 47.7885 47.5774 47.6718 47.3529 47.6329L46.0983 47.406C45.9503 46.8586 45.7312 46.3328 45.4463 45.8422L46.1813 44.7966C46.3092 44.6116 46.3685 44.3879 46.3488 44.164C46.3292 43.9402 46.2319 43.7301 46.0737 43.5701L45.3203 42.8066C45.1598 42.6488 44.9492 42.5518 44.7246 42.5322C44.5001 42.5126 44.2758 42.5717 44.0903 42.6993L43.0294 43.4383C42.5372 43.1545 42.01 42.936 41.4611 42.7882L41.2397 41.5341C41.2006 41.3102 41.0836 41.1072 40.9093 40.9609C40.7349 40.8145 40.5144 40.7341 40.2865 40.7339H39.2194C38.9915 40.7341 38.771 40.8145 38.5966 40.9609C38.4222 41.1072 38.3052 41.3102 38.2662 41.5341L38.0478 42.7882C37.4989 42.936 36.9717 43.1545 36.4796 43.4383L35.431 42.7054C35.2455 42.5778 35.0211 42.5188 34.7966 42.5383C34.5721 42.5579 34.3615 42.655 34.201 42.8128L33.4353 43.564C33.2771 43.724 33.1797 43.934 33.1601 44.1579C33.1405 44.3818 33.1997 44.6055 33.3277 44.7905L34.0503 45.8483C33.7692 46.3375 33.5532 46.8611 33.4076 47.406L32.1469 47.6267C31.9223 47.6657 31.7187 47.7824 31.5719 47.9562C31.4251 48.1301 31.3445 48.35 31.3443 48.5773V49.6413C31.3423 49.8701 31.422 50.0922 31.5689 50.268C31.7159 50.4437 31.9207 50.5618 32.1469 50.601ZM39.7514 46.0354C40.3596 46.0354 40.9541 46.2152 41.4598 46.5521C41.9655 46.889 42.3596 47.3679 42.5924 47.9282C42.8251 48.4885 42.886 49.105 42.7673 49.6998C42.6487 50.2946 42.3558 50.8409 41.9258 51.2697C41.4957 51.6986 40.9478 51.9906 40.3513 52.1089C39.7548 52.2272 39.1365 52.1665 38.5746 51.9344C38.0127 51.7023 37.5325 51.3093 37.1946 50.8051C36.8567 50.3009 36.6764 49.708 36.6764 49.1016C36.6764 48.2884 37.0003 47.5085 37.577 46.9334C38.1537 46.3584 38.9358 46.0354 39.7514 46.0354ZM55.0066 53.1735V49.1261H53.7305C53.6622 49.1245 53.5956 49.1046 53.5377 49.0685C53.4797 49.0324 53.4326 48.9814 53.4012 48.9209C53.3697 48.8605 53.3552 48.7927 53.359 48.7247C53.3628 48.6567 53.3849 48.5909 53.423 48.5343L55.926 44.8273C55.96 44.7767 56.0057 44.7349 56.0592 44.7056C56.1127 44.6762 56.1725 44.6601 56.2335 44.6586C56.2946 44.6601 56.3544 44.6762 56.4079 44.7056C56.4614 44.7349 56.5071 44.7767 56.541 44.8273L59.0503 48.5343C59.0883 48.5909 59.1104 48.6567 59.1142 48.7247C59.1181 48.7927 59.1035 48.8605 59.0721 48.9209C59.0407 48.9814 58.9935 49.0324 58.9356 49.0685C58.8776 49.1046 58.8111 49.1245 58.7428 49.1261H57.4543V54.3939C57.4543 54.7192 57.3247 55.0312 57.0941 55.2612C56.8634 55.4912 56.5505 55.6204 56.2243 55.6204H48.835C48.689 55.6204 48.549 55.5626 48.4458 55.4596C48.3426 55.3567 48.2846 55.2171 48.2846 55.0715V53.7224C48.2846 53.5768 48.3426 53.4372 48.4458 53.3343C48.549 53.2314 48.689 53.1735 48.835 53.1735H55.0066ZM60.5417 37.3671C60.7662 37.3282 60.9698 37.2115 61.1166 37.0376C61.2634 36.8638 61.344 36.6439 61.3442 36.4166V35.3526C61.344 35.1253 61.2634 34.9054 61.1166 34.7316C60.9698 34.5577 60.7662 34.441 60.5417 34.4021L59.284 34.1813C59.142 33.6338 58.9291 33.1071 58.6505 32.6145L59.3854 31.5689C59.5134 31.3839 59.5727 31.1602 59.553 30.9363C59.5334 30.7125 59.4361 30.5024 59.2778 30.3424L58.5152 29.5789C58.3547 29.4211 58.1441 29.3241 57.9196 29.3045C57.6951 29.2849 57.4707 29.344 57.2852 29.4716L56.2274 30.2044C55.7333 29.9201 55.204 29.7015 54.653 29.5544L54.4377 28.3003C54.3987 28.0764 54.2816 27.8734 54.1073 27.727C53.9329 27.5806 53.7124 27.5002 53.4845 27.5H52.4144C52.1864 27.5002 51.9659 27.5806 51.7915 27.727C51.6172 27.8734 51.5002 28.0764 51.4611 28.3003L51.2397 29.5544C50.6908 29.702 50.1636 29.9206 49.6714 30.2044L48.6229 29.4716C48.4373 29.344 48.213 29.2849 47.9885 29.3045C47.764 29.3241 47.5533 29.4211 47.3928 29.5789L46.6272 30.3332C46.4689 30.4932 46.3716 30.7033 46.352 30.9271C46.3323 31.151 46.3916 31.3747 46.5195 31.5597L47.2545 32.6053C46.9697 33.096 46.7505 33.6217 46.6026 34.1691L45.3449 34.3898C45.1203 34.4288 44.9167 34.5455 44.7699 34.7193C44.6231 34.8932 44.5425 35.1131 44.5423 35.3404V36.4043C44.5425 36.6316 44.6231 36.8515 44.7699 37.0254C44.9167 37.1992 45.1203 37.3159 45.3449 37.3549L46.6056 37.5756C46.7535 38.123 46.9727 38.6488 47.2575 39.1394L46.5226 40.185C46.3947 40.37 46.3354 40.5937 46.355 40.8176C46.3747 41.0414 46.472 41.2515 46.6302 41.4115L47.3805 42.1934C47.541 42.3512 47.7517 42.4482 47.9762 42.4678C48.2007 42.4874 48.425 42.4283 48.6105 42.3007L49.6591 41.5679C50.1512 41.8518 50.6785 42.0703 51.2274 42.2179L51.4488 43.472C51.4879 43.6959 51.6049 43.8989 51.7792 44.0453C51.9536 44.1917 52.1741 44.272 52.4021 44.2723H53.4722C53.7001 44.272 53.9206 44.1917 54.095 44.0453C54.2693 43.8989 54.3864 43.6959 54.4254 43.472L54.653 42.2118C55.2019 42.0642 55.7291 41.8456 56.2212 41.5617L57.2698 42.2946C57.4554 42.4222 57.6797 42.4812 57.9042 42.4617C58.1287 42.4421 58.3394 42.345 58.4998 42.1872L59.2655 41.436C59.4237 41.276 59.5211 41.066 59.5407 40.8421C59.5604 40.6182 59.5011 40.3945 59.3731 40.2095L58.6505 39.1517C58.9317 38.6625 59.1477 38.1389 59.2932 37.594L60.5417 37.3671ZM52.9494 38.9646C52.3412 38.9646 51.7467 38.7848 51.241 38.4479C50.7353 38.111 50.3412 37.6321 50.1085 37.0718C49.8757 36.5115 49.8148 35.895 49.9335 35.3002C50.0521 34.7054 50.345 34.1591 50.775 33.7303C51.2051 33.3014 51.753 33.0094 52.3495 32.8911C52.946 32.7728 53.5643 32.8335 54.1262 33.0656C54.6881 33.2977 55.1683 33.6907 55.5062 34.1949C55.8441 34.6991 56.0244 35.292 56.0244 35.8984C56.0244 36.7116 55.7005 37.4915 55.1238 38.0666C54.5471 38.6416 53.765 38.9646 52.9494 38.9646ZM37.6942 31.8265V35.8739H38.9703C39.0386 35.8755 39.1052 35.8954 39.1632 35.9315C39.2211 35.9676 39.2682 36.0186 39.2997 36.0791C39.3311 36.1395 39.3456 36.2073 39.3418 36.2753C39.338 36.3433 39.3159 36.4091 39.2778 36.4657L36.784 40.1727C36.75 40.2233 36.7044 40.2651 36.6509 40.2944C36.5973 40.3238 36.5375 40.3399 36.4765 40.3414C36.4154 40.3399 36.3556 40.3238 36.3021 40.2944C36.2486 40.2651 36.203 40.2233 36.169 40.1727L33.6505 36.4657C33.6125 36.4091 33.5904 36.3433 33.5866 36.2753C33.5827 36.2073 33.5973 36.1395 33.6287 36.0791C33.6602 36.0186 33.7073 35.9676 33.7652 35.9315C33.8232 35.8954 33.8898 35.8755 33.958 35.8739H35.2373V30.6061C35.2373 30.2808 35.3668 29.9688 35.5975 29.7388C35.8282 29.5088 36.141 29.3796 36.4673 29.3796H43.8658C44.0118 29.3796 44.1518 29.4374 44.255 29.5404C44.3582 29.6433 44.4162 29.7829 44.4162 29.9285V31.2776C44.4162 31.3497 44.402 31.421 44.3743 31.4876C44.3467 31.5542 44.3061 31.6147 44.255 31.6657C44.2039 31.7167 44.1432 31.7571 44.0764 31.7847C44.0096 31.8123 43.9381 31.8265 43.8658 31.8265H37.6942Z" fill="#9B2FFF"/>
<defs>
<filter id="filter0_d" x="0.363525" y="0.237305" width="91.9615" height="97.5248" filterUnits="userSpaceOnUse" color-interpolation-filters="sRGB">
<feFlood flood-opacity="0" result="BackgroundImageFix"/>
<feColorMatrix in="SourceAlpha" type="matrix" values="0 0 0 0 0 0 0 0 0 0 0 0 0 0 0 0 0 0 127 0"/>
<feOffset dy="6"/>
<feGaussianBlur stdDeviation="10"/>
<feColorMatrix type="matrix" values="0 0 0 0 0 0 0 0 0 0 0 0 0 0 0 0 0 0 0.05 0"/>
<feBlend mode="normal" in2="BackgroundImageFix" result="effect1_dropShadow"/>
<feBlend mode="normal" in="SourceGraphic" in2="effect1_dropShadow" result="shape"/>
</filter>
<linearGradient id="paint0_linear" x1="46.3442" y1="73" x2="46.3442" y2="13" gradientUnits="userSpaceOnUse">
<stop stop-color="white"/>
<stop offset="1" stop-color="#F4F4F4"/>
</linearGradient>
</defs>
</svg>
