<svg width="92" height="98" viewBox="0 0 92 98" fill="none" xmlns="http://www.w3.org/2000/svg">
<g filter="url(#filter0_d)">
<path d="M42 15.3094C44.4752 13.8803 47.5248 13.8803 50 15.3094L67.9808 25.6906C70.456 27.1197 71.9808 29.7607 71.9808 32.6188V53.3812C71.9808 56.2393 70.456 58.8803 67.9808 60.3094L50 70.6906C47.5248 72.1197 44.4752 72.1197 42 70.6906L24.0192 60.3094C21.544 58.8803 20.0192 56.2393 20.0192 53.3812V32.6188C20.0192 29.7607 21.544 27.1197 24.0192 25.6906L42 15.3094Z" fill="url(#paint0_linear)"/>
</g>
<path d="M46.0136 31.5C38.8356 31.5 33 35.7513 33 40.9815C33 43.9742 34.8904 46.6312 37.8493 48.3653C37.5753 49.2323 37 50.3511 35.8493 51.6936C35.137 52.5327 35.9863 53.8192 37 53.4277C39.137 52.6166 41.6027 51.4698 43.8767 50.3511C44.5616 50.435 45.2739 50.4909 45.9863 50.4909C53.1643 50.4909 58.9999 46.2396 58.9999 41.0094C59.0273 35.7513 53.1917 31.5 46.0136 31.5ZM51.5205 38.9397L45.4109 45.6523C45.1643 45.904 44.7808 45.904 44.5342 45.6523L40.5068 41.2332C40.2876 40.9815 40.2876 40.6179 40.5342 40.3662L41.7945 39.1635C42.0411 38.9397 42.3972 38.9397 42.6438 39.1915L45 41.7646L49.4109 36.898C49.6301 36.6463 50.0136 36.6463 50.2602 36.87L51.5205 38.0727C51.7397 38.3244 51.7671 38.688 51.5205 38.9397Z" fill="#9B2FFF"/>
<defs>
<filter id="filter0_d" x="0.0192871" y="0.237305" width="91.9615" height="97.5248" filterUnits="userSpaceOnUse" color-interpolation-filters="sRGB">
<feFlood flood-opacity="0" result="BackgroundImageFix"/>
<feColorMatrix in="SourceAlpha" type="matrix" values="0 0 0 0 0 0 0 0 0 0 0 0 0 0 0 0 0 0 127 0"/>
<feOffset dy="6"/>
<feGaussianBlur stdDeviation="10"/>
<feColorMatrix type="matrix" values="0 0 0 0 0 0 0 0 0 0 0 0 0 0 0 0 0 0 0.05 0"/>
<feBlend mode="normal" in2="BackgroundImageFix" result="effect1_dropShadow"/>
<feBlend mode="normal" in="SourceGraphic" in2="effect1_dropShadow" result="shape"/>
</filter>
<linearGradient id="paint0_linear" x1="46" y1="73" x2="46" y2="13" gradientUnits="userSpaceOnUse">
<stop stop-color="white"/>
<stop offset="1" stop-color="#F4F4F4"/>
</linearGradient>
</defs>
</svg>
