<svg width="274" height="184" viewBox="0 0 274 184" fill="none" xmlns="http://www.w3.org/2000/svg">
<g opacity="0.15" filter="url(#filter0_f)">
<path d="M150 127L142 59L244 136.722L172 154L150 127Z" fill="black"/>
<path d="M172.036 153.893L150.091 126.961L142.121 59.2117L243.783 136.676L172.036 153.893Z" stroke="black" stroke-width="0.190422"/>
</g>
<path d="M158.931 113.593C155.617 111.644 152.417 110.612 149.56 110.498C149.56 110.268 149.56 110.154 149.56 109.924C149.56 81.3799 129.445 46.5305 104.645 32.201C84.6451 20.6227 67.845 25.896 61.9021 43.206C60.4164 42.0597 58.8164 40.9133 57.2164 39.9962C40.8734 30.4814 27.6162 38.1621 27.6162 56.9624C27.6162 75.7628 40.8734 98.69 57.2164 108.205C65.445 112.905 149.217 161.511 158.931 167.128C171.731 174.579 182.131 168.618 182.131 153.83C182.131 139.042 171.731 121.044 158.931 113.593Z" fill="url(#paint0_linear)"/>
<path d="M158.931 113.593C155.617 111.644 152.417 110.612 149.56 110.498C149.56 110.268 149.56 110.154 149.56 109.924C149.56 81.3799 129.445 46.5305 104.645 32.201C84.6451 20.6227 67.845 25.896 61.9021 43.206C60.4164 42.0597 58.8164 40.9133 57.2164 39.9962C40.8734 30.4814 27.6162 38.1621 27.6162 56.9624C27.6162 75.7628 40.8734 98.69 57.2164 108.205C65.445 112.905 149.217 161.511 158.931 167.128C171.731 174.579 182.131 168.618 182.131 153.83C182.131 139.042 171.731 121.044 158.931 113.593Z" fill="url(#paint1_linear)"/>
<path d="M158.931 113.593C155.617 111.644 152.417 110.612 149.56 110.498C149.56 110.268 149.56 110.154 149.56 109.924C149.56 81.3799 129.445 46.5305 104.645 32.201C84.6451 20.6227 67.845 25.896 61.9021 43.206C60.4164 42.0597 58.8164 40.9133 57.2164 39.9962C40.8734 30.4814 27.6162 38.1621 27.6162 56.9624C27.6162 75.7628 40.8734 98.69 57.2164 108.205C65.445 112.905 149.217 161.511 158.931 167.128C171.731 174.579 182.131 168.618 182.131 153.83C182.131 139.042 171.731 121.044 158.931 113.593Z" fill="url(#paint2_linear)"/>
<path d="M227.506 127.347C227.506 112.559 217.106 94.6754 204.305 87.224C200.991 85.2752 197.791 84.2434 194.934 84.1288C194.934 83.8995 194.934 83.7849 194.934 83.5556C194.934 55.0112 174.82 20.1617 150.019 5.83221C135.962 -2.30697 123.848 -1.1606 115.391 4.57121L101.105 12.825C92.9905 8.58348 85.7905 8.58348 80.6476 12.1372L37.6759 37.1279C42.9331 34.8352 49.7903 35.6377 57.2189 39.9938C58.8189 40.9109 60.4189 42.0573 61.9046 43.2037C67.7332 25.8936 84.6476 20.7349 104.648 32.1986C129.448 46.5281 149.562 81.3775 149.562 109.922C149.562 110.151 149.562 110.266 149.562 110.495C152.419 110.724 155.619 111.642 158.934 113.59C171.734 121.042 182.134 139.04 182.134 153.713C182.134 159.903 180.305 164.604 177.105 167.355L219.848 142.708C224.534 140.53 227.506 135.257 227.506 127.347Z" fill="url(#paint3_linear)"/>
<g opacity="0.15" filter="url(#filter1_f)">
<path d="M36.2521 81.127L50.0603 84.579V98.3871L67.3205 108.743L34.5261 112.195L36.2521 81.127Z" fill="black"/>
</g>
<path d="M45.1791 99.373L22.587 112.407V138.405L45.1791 125.441V99.373Z" fill="url(#paint4_linear)"/>
<path d="M22.592 112.407L0 99.373V125.441L22.592 138.388V112.407Z" fill="url(#paint5_linear)"/>
<path d="M45.1853 99.3693L22.4484 86.3066L0.0012207 99.3695L22.5932 112.403L45.1853 99.3693Z" fill="url(#paint6_linear)"/>
<path d="M45.1798 71.7461L22.5878 84.7799V110.778L45.1798 97.8138V71.7461Z" fill="url(#paint7_linear)"/>
<path d="M22.5927 84.7799L0.000732422 71.7461V97.8138L22.5927 110.761V84.7799Z" fill="url(#paint8_linear)"/>
<path d="M45.1851 71.7522L22.4483 58.6895L0.00109863 71.7523L22.5931 84.7861L45.1851 71.7522Z" fill="url(#paint9_linear)"/>
<g opacity="0.15" filter="url(#filter2_f)">
<path d="M56.6546 135.233L67.9844 127.727L82.8547 136.357L51.7864 150.165L56.6546 135.233Z" fill="black"/>
</g>
<path d="M69.3575 113.178L46.7655 126.212V152.209L69.3575 139.245V113.178Z" fill="url(#paint10_linear)"/>
<path d="M46.7616 126.212L24.1696 113.178V139.245L46.7616 152.192V126.212Z" fill="url(#paint11_linear)"/>
<path d="M69.3515 113.172L46.6147 100.109L24.1675 113.172L46.7595 126.206L69.3515 113.172Z" fill="url(#paint12_linear)"/>
<defs>
<filter id="filter0_f" x="112" y="29" width="162" height="155" filterUnits="userSpaceOnUse" color-interpolation-filters="sRGB">
<feFlood flood-opacity="0" result="BackgroundImageFix"/>
<feBlend mode="normal" in="SourceGraphic" in2="BackgroundImageFix" result="shape"/>
<feGaussianBlur stdDeviation="15" result="effect1_foregroundBlur"/>
</filter>
<filter id="filter1_f" x="4.52612" y="51.127" width="92.7944" height="91.0683" filterUnits="userSpaceOnUse" color-interpolation-filters="sRGB">
<feFlood flood-opacity="0" result="BackgroundImageFix"/>
<feBlend mode="normal" in="SourceGraphic" in2="BackgroundImageFix" result="shape"/>
<feGaussianBlur stdDeviation="15" result="effect1_foregroundBlur"/>
</filter>
<filter id="filter2_f" x="21.7864" y="97.7266" width="91.0683" height="82.4382" filterUnits="userSpaceOnUse" color-interpolation-filters="sRGB">
<feFlood flood-opacity="0" result="BackgroundImageFix"/>
<feBlend mode="normal" in="SourceGraphic" in2="BackgroundImageFix" result="shape"/>
<feGaussianBlur stdDeviation="15" result="effect1_foregroundBlur"/>
</filter>
<linearGradient id="paint0_linear" x1="54.5805" y1="104.369" x2="145.315" y2="89.6531" gradientUnits="userSpaceOnUse">
<stop stop-color="#0788FC"/>
<stop offset="1" stop-color="#84B8FF"/>
</linearGradient>
<linearGradient id="paint1_linear" x1="120.821" y1="55.2343" x2="40.5041" y2="118.146" gradientUnits="userSpaceOnUse">
<stop stop-color="#BFD4ED"/>
<stop offset="0.735213" stop-color="#EDF5FF"/>
</linearGradient>
<linearGradient id="paint2_linear" x1="170.246" y1="71.4505" x2="91.3622" y2="174.763" gradientUnits="userSpaceOnUse">
<stop stop-color="#EDF5FF"/>
<stop offset="1" stop-color="#DDE7F2"/>
</linearGradient>
<linearGradient id="paint3_linear" x1="191.608" y1="112.375" x2="79.2531" y2="187.17" gradientUnits="userSpaceOnUse">
<stop offset="0.0816258" stop-color="#DFEBFA"/>
<stop offset="1" stop-color="white"/>
</linearGradient>
<linearGradient id="paint4_linear" x1="43.4412" y1="111.659" x2="22.581" y2="126.429" gradientUnits="userSpaceOnUse">
<stop stop-color="#B7BFC8"/>
<stop offset="1" stop-color="#BFD4ED"/>
</linearGradient>
<linearGradient id="paint5_linear" x1="20.8542" y1="111.654" x2="3.94e-06" y2="126.426" gradientUnits="userSpaceOnUse">
<stop stop-color="#EDF5FF"/>
<stop offset="1" stop-color="#D8E5F5"/>
</linearGradient>
<linearGradient id="paint6_linear" x1="36.6408" y1="103.83" x2="17.6524" y2="123.125" gradientUnits="userSpaceOnUse">
<stop offset="0.0816258" stop-color="#BFD4ED"/>
<stop offset="1" stop-color="#EDF5FF"/>
</linearGradient>
<linearGradient id="paint7_linear" x1="43.4419" y1="84.0323" x2="22.5817" y2="98.8019" gradientUnits="userSpaceOnUse">
<stop stop-color="#D4DBE3"/>
<stop offset="1" stop-color="#CDE1F8"/>
</linearGradient>
<linearGradient id="paint8_linear" x1="20.8549" y1="84.027" x2="0.000736362" y2="98.7987" gradientUnits="userSpaceOnUse">
<stop stop-color="#EDF5FF"/>
<stop offset="1" stop-color="#D8E5F5"/>
</linearGradient>
<linearGradient id="paint9_linear" x1="36.6407" y1="76.2127" x2="17.6523" y2="95.5076" gradientUnits="userSpaceOnUse">
<stop offset="0.0816258" stop-color="#DDE9F8"/>
<stop offset="1" stop-color="#EDF5FF"/>
</linearGradient>
<linearGradient id="paint10_linear" x1="67.6197" y1="125.464" x2="46.7594" y2="140.234" gradientUnits="userSpaceOnUse">
<stop stop-color="#D4DBE3"/>
<stop offset="1" stop-color="#CDE1F8"/>
</linearGradient>
<linearGradient id="paint11_linear" x1="45.0237" y1="125.459" x2="24.1696" y2="140.23" gradientUnits="userSpaceOnUse">
<stop stop-color="#EDF5FF"/>
<stop offset="1" stop-color="#D8E5F5"/>
</linearGradient>
<linearGradient id="paint12_linear" x1="60.8071" y1="117.633" x2="41.8186" y2="136.928" gradientUnits="userSpaceOnUse">
<stop offset="0.0816258" stop-color="#DDE9F8"/>
<stop offset="1" stop-color="#EDF5FF"/>
</linearGradient>
</defs>
</svg>
