<svg width="93" height="98" viewBox="0 0 93 98" fill="none" xmlns="http://www.w3.org/2000/svg">
<g filter="url(#filter0_d)">
<path d="M42.1833 15.3094C44.6586 13.8803 47.7081 13.8803 50.1833 15.3094L68.1641 25.6906C70.6393 27.1197 72.1641 29.7607 72.1641 32.6188V53.3812C72.1641 56.2393 70.6393 58.8803 68.1641 60.3094L50.1833 70.6906C47.7081 72.1197 44.6586 72.1197 42.1833 70.6906L24.2026 60.3094C21.7274 58.8803 20.2026 56.2393 20.2026 53.3812V32.6188C20.2026 29.7607 21.7274 27.1197 24.2026 25.6906L42.1833 15.3094Z" fill="url(#paint0_linear)"/>
</g>
<path d="M38.1755 38.6244C38.1755 36.9228 39.5305 35.5679 41.232 35.5679H47.7862V38.6244C47.7862 39.2546 48.1328 39.8218 48.6684 40.1054C48.9205 40.2314 49.1726 40.2944 49.4247 40.2944C49.7713 40.2944 50.0864 40.1999 50.37 39.9793L56.9557 35.2528C57.3968 34.9377 57.6489 34.4335 57.6489 33.8979C57.6489 33.3622 57.3968 32.858 56.9557 32.5429L50.37 27.8164C49.8658 27.4697 49.2041 27.4067 48.6684 27.6903C48.1328 27.9739 47.7862 28.5411 47.7862 29.1713V32.2278H41.2635C37.7344 32.2278 34.8984 35.0952 34.8984 38.5929V46.2814L38.207 43.9181V38.6244H38.1755Z" fill="#9B2FFF"/>
<path d="M54.1831 46.376C54.1831 48.0776 52.8282 49.4325 51.1266 49.4325H44.541V46.376C44.541 45.7458 44.1944 45.1786 43.6587 44.895C43.123 44.6114 42.4613 44.6745 41.9571 45.0211L35.34 49.7476C34.8988 50.0627 34.6467 50.5669 34.6467 51.1026C34.6467 51.6382 34.8988 52.1424 35.34 52.4575L41.9256 57.1841C42.2092 57.3731 42.5558 57.4992 42.8709 57.4992C43.123 57.4992 43.3751 57.4361 43.6272 57.3101C44.1628 57.0265 44.5095 56.4593 44.5095 55.8291V52.7726H51.0951C54.6243 52.7726 57.4602 49.9052 57.4602 46.4075V38.6875L54.1516 41.0508V46.376H54.1831Z" fill="#9B2FFF"/>
<defs>
<filter id="filter0_d" x="0.202637" y="0.237305" width="91.9615" height="97.5248" filterUnits="userSpaceOnUse" color-interpolation-filters="sRGB">
<feFlood flood-opacity="0" result="BackgroundImageFix"/>
<feColorMatrix in="SourceAlpha" type="matrix" values="0 0 0 0 0 0 0 0 0 0 0 0 0 0 0 0 0 0 127 0"/>
<feOffset dy="6"/>
<feGaussianBlur stdDeviation="10"/>
<feColorMatrix type="matrix" values="0 0 0 0 0 0 0 0 0 0 0 0 0 0 0 0 0 0 0.05 0"/>
<feBlend mode="normal" in2="BackgroundImageFix" result="effect1_dropShadow"/>
<feBlend mode="normal" in="SourceGraphic" in2="effect1_dropShadow" result="shape"/>
</filter>
<linearGradient id="paint0_linear" x1="46.1834" y1="73" x2="46.1834" y2="13" gradientUnits="userSpaceOnUse">
<stop stop-color="white"/>
<stop offset="1" stop-color="#F4F4F4"/>
</linearGradient>
</defs>
</svg>
