<svg width="93" height="98" viewBox="0 0 93 98" fill="none" xmlns="http://www.w3.org/2000/svg">
<g filter="url(#filter0_d)">
<path d="M42.1216 15.3094C44.5968 13.8803 47.6464 13.8803 50.1216 15.3094L68.1023 25.6906C70.5776 27.1197 72.1023 29.7607 72.1023 32.6188V53.3812C72.1023 56.2393 70.5776 58.8803 68.1023 60.3094L50.1216 70.6906C47.6464 72.1197 44.5968 72.1197 42.1216 70.6906L24.1408 60.3094C21.6656 58.8803 20.1408 56.2393 20.1408 53.3812V32.6188C20.1408 29.7607 21.6656 27.1197 24.1408 25.6906L42.1216 15.3094Z" fill="url(#paint0_linear)"/>
</g>
<path d="M49.4666 39.3965H42.7771C39.122 39.3965 36.1221 42.3619 36.1221 46.0515V49.1894H38.9841C38.8117 48.5342 38.9841 47.7756 39.5013 47.2584L40.984 45.7757C41.3633 45.3963 41.8806 45.1895 42.4323 45.1895C42.6736 45.1895 42.9495 45.2584 43.1909 45.3274C43.5012 44.6033 44.2253 44.086 45.0529 44.086H47.1563C47.9839 44.086 48.708 44.6033 49.0183 45.3274C49.2597 45.2239 49.5356 45.1895 49.7769 45.1895C50.3286 45.1895 50.8114 45.3963 51.2252 45.7757L52.7079 47.2584C53.2251 47.7756 53.432 48.5342 53.2251 49.1894H56.1216V46.0515C56.1216 42.3619 53.1562 39.3965 49.4666 39.3965Z" fill="#9B2FFF"/>
<path d="M46.1218 37.4312C49.245 37.4312 51.7769 34.8993 51.7769 31.7761C51.7769 28.6529 49.245 26.1211 46.1218 26.1211C42.9986 26.1211 40.4668 28.6529 40.4668 31.7761C40.4668 34.8993 42.9986 37.4312 46.1218 37.4312Z" fill="#9B2FFF"/>
<path d="M52.4317 51.1202L50.88 50.8788C50.7421 50.534 50.7076 50.4305 50.5352 50.0512L51.4662 48.8099C51.5352 48.7064 51.5352 48.603 51.4317 48.534L49.949 47.0513C49.8801 46.9823 49.7421 46.9823 49.6732 47.0168L48.4318 47.9478C48.087 47.8099 47.9836 47.7754 47.6042 47.603L47.3629 46.0513C47.3629 45.9479 47.2594 45.8789 47.156 45.8789H45.0871C44.9836 45.8789 44.8802 45.9479 44.8802 46.0513L44.6388 47.603C44.294 47.7409 44.1905 47.7754 43.8112 47.9478L42.5699 47.0168C42.4664 46.9478 42.363 46.9478 42.294 47.0513L40.8113 48.534C40.7423 48.603 40.7423 48.7409 40.7768 48.8099L41.7078 50.0512C41.5699 50.396 41.5354 50.4995 41.363 50.8788L39.8113 51.1202C39.7079 51.1202 39.6389 51.2236 39.6389 51.3271V53.4305C39.6389 53.5339 39.7079 53.6373 39.8113 53.6373L41.363 53.8787C41.5009 54.2235 41.5354 54.327 41.7078 54.7063L40.7768 55.9476C40.7079 56.0511 40.7079 56.1545 40.8113 56.2235L42.294 57.7062C42.363 57.7752 42.5009 57.7752 42.5699 57.7407L43.8112 56.8097C44.1561 56.9476 44.2595 56.9821 44.6388 57.1545L44.8802 58.7062C44.8802 58.8096 44.9836 58.8786 45.0871 58.8786H47.1905C47.2939 58.8786 47.3974 58.8096 47.3974 58.7062L47.6387 57.1545C47.9836 57.0166 48.087 56.9821 48.4663 56.8097L49.7076 57.7407C49.8111 57.8097 49.9145 57.8097 49.9835 57.7062L51.4662 56.2235C51.5352 56.1545 51.5352 56.0166 51.5007 55.9476L50.5697 54.7063C50.7076 54.3615 50.7421 54.258 50.9145 53.8787L52.4662 53.6373C52.5697 53.6373 52.6386 53.5339 52.6386 53.4305V51.3271C52.6386 51.2236 52.5352 51.1202 52.4317 51.1202ZM46.1215 54.6028C44.8802 54.6028 43.8802 53.6029 43.8802 52.3615C43.8802 51.1202 44.8802 50.1202 46.1215 50.1202C47.3629 50.1202 48.3629 51.1202 48.3629 52.3615C48.3629 53.6029 47.3629 54.6028 46.1215 54.6028Z" fill="#9B2FFF"/>
<defs>
<filter id="filter0_d" x="0.140869" y="0.237305" width="91.9615" height="97.5248" filterUnits="userSpaceOnUse" color-interpolation-filters="sRGB">
<feFlood flood-opacity="0" result="BackgroundImageFix"/>
<feColorMatrix in="SourceAlpha" type="matrix" values="0 0 0 0 0 0 0 0 0 0 0 0 0 0 0 0 0 0 127 0"/>
<feOffset dy="6"/>
<feGaussianBlur stdDeviation="10"/>
<feColorMatrix type="matrix" values="0 0 0 0 0 0 0 0 0 0 0 0 0 0 0 0 0 0 0.05 0"/>
<feBlend mode="normal" in2="BackgroundImageFix" result="effect1_dropShadow"/>
<feBlend mode="normal" in="SourceGraphic" in2="effect1_dropShadow" result="shape"/>
</filter>
<linearGradient id="paint0_linear" x1="46.1216" y1="73" x2="46.1216" y2="13" gradientUnits="userSpaceOnUse">
<stop stop-color="white"/>
<stop offset="1" stop-color="#F4F4F4"/>
</linearGradient>
</defs>
</svg>
