<svg width="217" height="134" viewBox="0 0 217 134" fill="none" xmlns="http://www.w3.org/2000/svg">
<g clip-path="url(#clip0)">
<path d="M84.5991 45.4615C83.4891 46.1022 82.7091 46.6911 82.2591 47.1933C81.8391 47.7129 81.4191 48.3017 81.0591 48.9945C80.9691 49.2196 80.7891 49.3928 80.5791 49.514C80.2791 49.6872 79.7991 49.7565 79.1091 49.7045L75.9592 49.3408C75.5092 49.2889 75.1492 49.185 74.9092 49.0464C74.6092 48.8732 74.4592 48.6135 74.4292 48.2844C74.4592 47.7822 74.5792 47.2972 74.7592 46.847C74.9692 46.3793 75.2392 45.8771 75.5992 45.2883C70.4993 45.5307 66.1793 44.6302 62.6394 42.5865C60.1194 41.1318 58.8294 39.5558 58.7994 37.8758C58.7694 36.1959 59.9394 34.6546 62.3394 33.2691C64.8893 31.797 67.8593 31.1215 71.2493 31.2774C74.6392 31.4333 77.8492 32.3858 80.9391 34.1696C81.9591 34.7585 82.9191 35.4166 83.8791 36.144C84.839 36.8714 85.739 37.668 86.669 38.5166L88.859 37.2524C91.139 35.9361 92.2489 34.7411 92.2489 33.6674C92.2189 32.5763 91.049 31.3813 88.739 30.0478C87.689 29.4416 86.489 28.8874 85.109 28.4025C83.7291 27.9176 82.3191 27.4846 80.8491 27.1209C80.1591 26.965 79.6791 26.8265 79.4091 26.7399C79.1391 26.6533 78.9591 26.584 78.8391 26.5147C78.4191 26.2723 78.5091 25.9779 79.1391 25.6142L80.6091 24.7656C81.0891 24.4885 81.5091 24.3153 81.8691 24.2806C82.2291 24.246 82.7091 24.2806 83.3391 24.4019C84.929 24.6963 86.639 25.1639 88.469 25.8047C90.329 26.4282 92.0689 27.2248 93.7189 28.1773C97.2889 30.2383 99.0888 32.2126 99.1488 34.1177C99.1788 36.0054 97.5589 37.9105 94.2589 39.8155L84.5391 45.4268L84.5991 45.4615ZM67.8593 41.0625C68.8493 41.634 70.0493 42.1189 71.4892 42.5346C72.9292 42.9502 74.5492 43.1234 76.2592 43.0715C77.3092 43.0195 78.2991 42.8636 79.1991 42.5519C80.0991 42.2402 81.0891 41.8072 82.1091 41.2184L83.3691 40.491C82.7091 39.8675 81.9591 39.2267 81.1191 38.6032C80.2791 37.9798 79.4091 37.4082 78.4791 36.8714C76.4692 35.711 74.6092 35.0875 72.8092 34.9836C71.0093 34.8797 69.3893 35.2607 67.8893 36.1266C66.4793 36.9406 65.7893 37.7546 65.8193 38.6032C65.7893 39.4518 66.4793 40.2658 67.8593 41.0625ZM88.709 56.8399C88.169 56.5281 87.899 56.2683 87.869 56.0086C87.809 55.7661 88.019 55.4024 88.409 54.9694L104.549 37.5121C104.969 37.0619 105.269 36.7848 105.479 36.6635C105.959 36.3864 106.469 36.3691 106.949 36.6462L109.889 38.3434C110.459 38.6725 110.759 38.9496 110.759 39.1921C110.819 39.4345 110.579 39.7809 110.189 40.2139L95.3689 54.5884L119.909 45.8251C120.659 45.5654 121.229 45.4441 121.649 45.4788C122.068 45.5134 122.608 45.6866 123.148 45.9983L125.548 47.3838C126.118 47.7129 126.418 47.99 126.448 48.2498C126.508 48.4922 126.298 48.8559 125.848 49.2543L110.489 63.5942L135.778 54.9868C136.558 54.7443 137.158 54.6404 137.548 54.6577C137.968 54.6923 138.478 54.8482 139.018 55.1599L141.808 56.7706C142.288 57.0477 142.318 57.3421 141.808 57.6365C141.658 57.7231 141.478 57.7924 141.268 57.879C141.058 57.9656 140.758 58.0695 140.308 58.1907L109.889 67.4043C109.109 67.6468 108.509 67.7507 108.089 67.716C107.669 67.6814 107.159 67.5255 106.649 67.2311L104.069 65.7417C103.499 65.4126 103.199 65.1355 103.169 64.8758C103.139 64.616 103.319 64.2696 103.799 63.854L118.499 49.999L94.5589 58.4851C93.8089 58.7449 93.2389 58.8662 92.7889 58.8488C92.3389 58.8315 91.8289 58.641 91.289 58.3293L88.709 56.8399ZM126.448 79.5621C124.888 78.6615 123.508 77.657 122.368 76.5832C121.229 75.5095 120.449 74.6089 120.119 73.8988C119.909 73.4659 119.879 73.1022 120.029 72.877C120.179 72.6519 120.419 72.4441 120.689 72.2882L122.218 71.4049C122.848 71.0412 123.388 71.0066 123.838 71.2664C124.018 71.3703 124.168 71.4915 124.288 71.6301C124.408 71.7686 124.558 71.9938 124.738 72.2362C125.308 73.0848 126.058 73.9335 126.988 74.7474C127.948 75.5787 128.998 76.3235 130.198 77.0162C132.088 78.1073 133.888 78.7654 135.568 78.9732C137.248 79.181 138.748 78.9386 139.978 78.2285C140.818 77.7436 141.238 77.1894 141.268 76.5486C141.298 75.9078 140.788 75.0245 139.798 73.8988L136.798 70.6083C135.298 68.9457 134.698 67.4216 135.058 66.0708C135.388 64.7372 136.348 63.5942 137.908 62.6936C139.168 61.9662 140.548 61.4813 142.048 61.2388C143.548 60.9964 145.108 60.9271 146.668 61.0656C148.258 61.1869 149.788 61.4813 151.348 61.9662C152.908 62.4511 154.318 63.0919 155.638 63.854C156.298 64.235 156.958 64.6506 157.528 65.0836C158.128 65.5339 158.638 65.9668 159.148 66.3998C159.598 66.8328 160.018 67.2484 160.378 67.6641C160.738 68.0797 160.978 68.4261 161.098 68.7032C161.278 69.0842 161.338 69.396 161.248 69.6557C161.188 69.8982 160.948 70.1407 160.528 70.3831L159.118 71.1971C158.488 71.5608 157.918 71.6128 157.468 71.353C157.228 71.2144 156.958 70.92 156.688 70.487C155.758 69.0496 154.228 67.716 152.098 66.4864C150.388 65.4992 148.768 64.8758 147.268 64.6679C145.768 64.4601 144.418 64.6853 143.188 65.3953C142.348 65.8803 141.928 66.4691 141.958 67.1445C141.988 67.82 142.528 68.7898 143.608 70.0021L146.518 73.2407C147.988 74.886 148.588 76.3408 148.288 77.5877C147.988 78.8347 147.028 79.9084 145.468 80.809C144.178 81.5537 142.738 82.0733 141.208 82.3677C139.648 82.6448 138.028 82.7487 136.378 82.6275C134.698 82.5236 133.048 82.1945 131.368 81.6749C129.598 81.1381 127.978 80.4453 126.448 79.5621Z" fill="url(#paint0_linear)"/>
<path fill-rule="evenodd" clip-rule="evenodd" d="M117.539 91.2527C100.379 89.7633 82.1693 83.7191 69.8395 76.6011C52.5597 66.6255 43.3799 53.9482 42.2399 41.0284C42.1499 40.0066 44.1298 39.8334 44.5798 40.8552C49.9198 52.4588 61.1396 64.0969 77.3693 73.4664C88.3192 79.7877 102.629 85.4163 118.379 89.1052C120.779 89.6248 120.359 91.4952 117.539 91.2527Z" fill="url(#paint1_linear)"/>
<path fill-rule="evenodd" clip-rule="evenodd" d="M126.329 90.9226C126.689 89.26 118.769 85.6577 115.169 84.0297C114.089 83.5448 114.779 82.9733 116.279 83.1118C125.879 84.0817 134.008 90.0913 133.768 91.4768C133.498 92.8796 122.849 97.4344 113.129 96.9495C111.629 96.8802 111.209 96.2221 112.469 95.9104C116.639 94.8886 125.999 92.5679 126.329 90.9226Z" fill="url(#paint2_linear)"/>
</g>
<defs>
<linearGradient id="paint0_linear" x1="174.939" y1="64.4718" x2="57.4821" y2="36.5095" gradientUnits="userSpaceOnUse">
<stop stop-color="#F1F1F1"/>
<stop offset="1" stop-color="white" stop-opacity="0.4"/>
</linearGradient>
<linearGradient id="paint1_linear" x1="132.193" y1="84.2922" x2="32.5731" y2="96.1561" gradientUnits="userSpaceOnUse">
<stop stop-color="#F1F1F1"/>
<stop offset="1" stop-color="white" stop-opacity="0.4"/>
</linearGradient>
<linearGradient id="paint2_linear" x1="140.845" y1="87.9241" x2="123.397" y2="70.2642" gradientUnits="userSpaceOnUse">
<stop stop-color="#F1F1F1"/>
<stop offset="1" stop-color="white" stop-opacity="0.4"/>
</linearGradient>
<clipPath id="clip0">
<rect width="105.305" height="63.0443" fill="white" transform="matrix(0.866044 0.499967 -0.866044 0.499967 78.5992 19)"/>
</clipPath>
</defs>
</svg>
